/Users/praveenkumar/Desktop/PraveenProjects/fluffy-main_original/src/test/java/com/springernature/fluffy/basetest/BaseTest.java
/Users/praveenkumar/Desktop/PraveenProjects/fluffy-main_original/src/test/java/com/springernature/fluffy/testpages/HomePagePageTest.java
/Users/praveenkumar/Desktop/PraveenProjects/fluffy-main_original/src/test/java/com/springernature/fluffy/testpages/AdvancedSearchPageTest.java
